{
  "project" : {
    "id" : "symlinks-668-BVh",
    "name" : "symlinks-668-BVh",
    "folder" : "/jaicp"
  },
  "settings" : {
    "language" : "en",
    "spellingCorrection" : false,
    "classificationAlgorithm" : "sts",
    "timezone" : "UTC",
    "shared" : false
  },
  "intents" : [ {
    "id" : 23613,
    "path" : "/Новый интент",
    "enabled" : true,
    "shared" : false
  }, {
    "id" : 24033,
    "path" : "/Новый интент 1",
    "enabled" : true,
    "shared" : false,
    "phrases" : [ {
      "text" : "привет"
    } ],
    "patterns" : [ ]
  } ],
  "entities" : [ {
    "entity" : {
      "id" : 7541,
      "name" : "Новая_сущность",
      "enabled" : true,
      "shared" : false,
      "type" : "annotation",
      "priority" : 1,
      "noSpelling" : false,
      "noMorph" : false
    },
    "records" : [ ]
  }, {
    "entity" : {
      "id" : 9035,
      "name" : "Новая_сущность_1",
      "enabled" : true,
      "shared" : false,
      "type" : "annotation",
      "priority" : 1,
      "noSpelling" : false,
      "noMorph" : false
    },
    "records" : [ ]
  }, {
    "entity" : {
      "id" : 9537,
      "name" : "Новая_сущность_10",
      "enabled" : true,
      "shared" : false,
      "type" : "annotation",
      "priority" : 1,
      "noSpelling" : false,
      "noMorph" : false
    },
    "records" : [ ]
  }, {
    "entity" : {
      "id" : 9538,
      "name" : "Новая_сущность_11",
      "enabled" : true,
      "shared" : false,
      "type" : "annotation",
      "priority" : 1,
      "noSpelling" : false,
      "noMorph" : false
    },
    "records" : [ ]
  }, {
    "entity" : {
      "id" : 7542,
      "name" : "Новая_сущность_12",
      "enabled" : true,
      "shared" : false,
      "type" : "annotation",
      "priority" : 1,
      "noSpelling" : false,
      "noMorph" : false
    },
    "records" : [ ]
  }, {
    "entity" : {
      "id" : 9036,
      "name" : "Новая_сущность_2",
      "enabled" : true,
      "shared" : false,
      "type" : "annotation",
      "priority" : 1,
      "noSpelling" : false,
      "noMorph" : false
    },
    "records" : [ ]
  }, {
    "entity" : {
      "id" : 9037,
      "name" : "Новая_сущность_3",
      "enabled" : true,
      "shared" : false,
      "type" : "annotation",
      "priority" : 1,
      "noSpelling" : false,
      "noMorph" : false
    },
    "records" : [ ]
  }, {
    "entity" : {
      "id" : 9038,
      "name" : "Новая_сущность_4",
      "enabled" : true,
      "shared" : false,
      "type" : "annotation",
      "priority" : 1,
      "noSpelling" : false,
      "noMorph" : false
    },
    "records" : [ ]
  }, {
    "entity" : {
      "id" : 9039,
      "name" : "Новая_сущность_5",
      "enabled" : true,
      "shared" : false,
      "type" : "annotation",
      "priority" : 1,
      "noSpelling" : false,
      "noMorph" : false
    },
    "records" : [ ]
  }, {
    "entity" : {
      "id" : 9040,
      "name" : "Новая_сущность_6",
      "enabled" : true,
      "shared" : false,
      "type" : "annotation",
      "priority" : 1,
      "noSpelling" : false,
      "noMorph" : false
    },
    "records" : [ ]
  }, {
    "entity" : {
      "id" : 9041,
      "name" : "Новая_сущность_7",
      "enabled" : true,
      "shared" : false,
      "type" : "annotation",
      "priority" : 1,
      "noSpelling" : false,
      "noMorph" : false
    },
    "records" : [ ]
  }, {
    "entity" : {
      "id" : 9042,
      "name" : "Новая_сущность_8",
      "enabled" : true,
      "shared" : false,
      "type" : "annotation",
      "priority" : 1,
      "noSpelling" : false,
      "noMorph" : false
    },
    "records" : [ ]
  }, {
    "entity" : {
      "id" : 9043,
      "name" : "Новая_сущность_9",
      "enabled" : true,
      "shared" : false,
      "type" : "annotation",
      "priority" : 1,
      "noSpelling" : false,
      "noMorph" : false
    },
    "records" : [ ]
  } ],
  "enabledSystemEntities" : [ "duckling.number", "duckling.time", "duckling.duration", "duckling.phone-number", "duckling.email", "duckling.url" ]
}